Estructuras y Tipos de Datos en R
…
				Ejemplo de Creación y Salida en R:

# Primero, necesitarías instalar y cargar el paquete:
# install.packages("tibble") # Solo una vez
# library(tibble)

# Creando un tibble
mi_tibble <- tibble(
  Nombre = c("Carlos", "Laura", "Pedro", "Sofia", "Ana", "Juan", "Maria", "Luis", "Elena", "David", "Isabel"),
  Puntaje = c(85, 92, 78, 95, 88, 72, 90, 81, 93, 76, 89),
  Activo = c(TRUE, FALSE, TRUE, TRUE, FALSE, TRUE, TRUE, FALSE, TRUE, FALSE, TRUE)
)

print(mi_tibble)
# # A tibble: 11 × 3
#    Nombre  Puntaje Activo
#    <chr>     <dbl> <lgl> 
#  1 Carlos       85 TRUE  
#  2 Laura        92 FALSE 
#  3 Pedro        78 TRUE  
#  4 Sofia        95 TRUE  
#  5 Ana          88 FALSE 
#  6 Juan         72 TRUE  
#  7 Maria        90 TRUE  
#  8 Luis         81 FALSE 
#  9 Elena        93 TRUE  
# 10 David        76 FALSE 
# # ℹ 1 more row
# # ℹ Use `print(n = ...)` to see more rows
…
